module gitlab.com/tu-social/brawlstars-exporter

go 1.21.4

require (
	github.com/go-kit/log v0.2.1
	github.com/prometheus/client_golang v1.18.0
)

require (
	github.com/beorn7/perks v1.0.1 // indirect
	github.com/cespare/xxhash/v2 v2.2.0 // indirect
	github.com/go-logfmt/logfmt v0.5.1 // indirect
	github.com/matttproud/golang_protobuf_extensions/v2 v2.0.0 // indirect
	github.com/prometheus/client_model v0.5.0 // indirect
	github.com/prometheus/common v0.45.0 // indirect
	github.com/prometheus/procfs v0.12.0 // indirect
	golang.org/x/sys v0.15.0 // indirect
	google.golang.org/protobuf v1.31.0 // indirect
)
